[gd_scene load_steps=3 format=2]

[ext_resource path="res://Assets/Sprites/powerup/powerupGreen_heart.png" type="Texture" id=1]

[sub_resource type="CircleShape2D" id=1]
radius = 53.9088

[node name="Health Item" type="Sprite"]
position = Vector2( 8.34465e-07, 1.9 )
scale = Vector2( 0.246, 0.246 )
texture = ExtResource( 1 )

[node name="Area2D" type="Area2D" parent="." groups=[
"Healths",
]]

[node name="CollisionShape2D" type="CollisionShape2D" parent="Area2D"]
visible = false
position = Vector2( 0, -8 )
shape = SubResource( 1 )
