[gd_scene load_steps=4 format=2]

[ext_resource path="res://Assets/Sprites/notes/low_note.png" type="Texture" id=1]
[ext_resource path="res://Scripts/High Note.gd" type="Script" id=2]

[sub_resource type="CircleShape2D" id=1]
radius = 64.0

[node name="High Note" type="Sprite"]
modulate = Color( 0, 1, 1, 1 )
scale = Vector2( 0.2, 0.2 )
texture = ExtResource( 1 )
script = ExtResource( 2 )

[node name="Area2D" type="Area2D" parent="." groups=[
"High Notes",
]]

[node name="CollisionShape2D" type="CollisionShape2D" parent="Area2D"]
visible = false
shape = SubResource( 1 )
