[gd_scene load_steps=4 format=2]

[ext_resource path="res://Assets/Sprites/notes/note_block.png" type="Texture" id=1]
[ext_resource path="res://Scripts/Note Block.gd" type="Script" id=2]

[sub_resource type="RectangleShape2D" id=1]
extents = Vector2( 96, 32 )

[node name="Note Block" type="Sprite"]
modulate = Color( 1, 1, 0, 0.607843 )
rotation = 1.5708
scale = Vector2( 0.5, 0.1 )
texture = ExtResource( 1 )
script = ExtResource( 2 )

[node name="Area2D" type="Area2D" parent="."]

[node name="CollisionShape2D" type="CollisionShape2D" parent="Area2D"]
visible = false
shape = SubResource( 1 )
[connection signal="area_entered" from="Area2D" to="." method="_on_Area2D_area_entered"]
