; Engine configuration file.
; It's best edited using the editor UI and not directly,
; since the parameters that go here are not all obvious.
;
; Format:
;   [section] ; section goes between []
;   param=value ; assign values to parameters

config_version=4

_global_script_classes=[  ]
_global_script_class_icons={

}

[application]

config/name="Synth Invaders"
run/main_scene="res://Scenes/Main Menu.tscn"
config/icon="res://icon.png"

[autoload]

Global="*res://Scripts/Global.gd"

[display]

window/size/width=1152
window/size/height=648
window/size/resizable=false
mouse_cursor/custom_image="res://Assets/Sprites/crosshair/crosshair038.png"
mouse_cursor/custom_image_hotspot=Vector2( 64, 64 )
window/stretch/mode="viewport"

[rendering]

environment/default_clear_color=Color( 0, 0, 0, 1 )
environment/default_environment="res://default_env.tres"
